[
	{ "s": "RANGO", "p": [28] },
	{ "s": "REALIZADA", "p": [23, 19] },
	{ "s": "REALIZAR", "p": [14] },
	{ "s": "REGISTRADAS", "p": [9] },
	{ "s": "REGISTRADOS", "p": [10] },
	{ "s": "REGISTRAR", "p": [25, 17, 5, 9] },
	{ "s": "REGISTRO", "p": [13, 6] },
	{ "s": "REGISTROS", "p": [6] },
	{ "s": "REGITRAR", "p": [9] },
	{ "s": "REGRESAR", "p": [23, 19, 11, 7] },
	{ "s": "RESPECTIVO", "p": [9] },
	{ "s": "RESULTADO", "p": [28, 10] },
	{ "s": "RESULTADOS", "p": [20, 15, 26, 28, 18, 10, 6] },
	{ "s": "RGISTRAR", "p": [13] }
]