[
	{ "s": "LA", "p": [17, 14, 5, 22, 21, 20, 15, 26, 28, 19, 18, 10, 3, 25, 23, 13, 9, 7, 6, 27, 12, 11, 8] },
	{ "s": "LAS", "p": [21, 14, 9] },
	{ "s": "LE", "p": [14, 28, 22, 19, 17, 3] },
	{ "s": "LECTIVA", "p": [17] },
	{ "s": "LIBRE", "p": [28] },
	{ "s": "LIDER", "p": [17, 28, 25] },
	{ "s": "LINEA", "p": [21] },
	{ "s": "LISTA", "p": [22, 25, 5] },
	{ "s": "LLEGADO", "p": [28] },
	{ "s": "LLENA", "p": [25] },
	{ "s": "LLENARA", "p": [25] },
	{ "s": "LLEVA", "p": [17] },
	{ "s": "LO", "p": [13] },
	{ "s": "LOS", "p": [11, 7, 22, 19, 28, 21, 20, 13, 9, 6, 27, 26, 25, 23, 18, 15, 10, 5, 17, 14] }
]