[
	{ "s": "BARRA", "p": [28, 27, 26, 25, 23, 21, 20, 19, 18, 17, 15, 14, 13, 11, 10, 9, 7, 6, 5] },
	{ "s": "BAS", "p": [13] },
	{ "s": "BASE", "p": [26, 20, 18, 15, 10, 9, 5] },
	{ "s": "BASICOS", "p": [10, 6] },
	{ "s": "BLANCO", "p": [21] },
	{ "s": "BOTON", "p": [21, 19, 13, 11, 7, 5, 25, 23, 22, 17, 9, 3] },
	{ "s": "BOTONO", "p": [22] },
	{ "s": "BUSCA", "p": [28, 26, 20, 18, 15, 10] },
	{ "s": "BUSCADOR", "p": [6, 28, 26, 20, 18, 15, 10] },
	{ "s": "BUSCAR", "p": [6] },
	{ "s": "BUSQUDA", "p": [18, 15] },
	{ "s": "BUSQUEDA", "p": [28, 26, 20, 15] }
]