[
	{ "s": "TABLA", "p": [26, 20, 15, 28, 18, 10] },
	{ "s": "TAREAS", "p": [19, 12, 8] },
	{ "s": "TECNICO", "p": [17] },
	{ "s": "TECNOLOGO", "p": [17] },
	{ "s": "TELEFONO", "p": [25, 17, 5] },
	{ "s": "TEMA", "p": [12, 8] },
	{ "s": "TENDRA", "p": [25, 14] },
	{ "s": "TENER", "p": [3] },
	{ "s": "TENIENDO", "p": [11] },
	{ "s": "TIENE", "p": [28, 25, 22, 21] },
	{ "s": "TIENEN", "p": [28] },
	{ "s": "TIPO", "p": [25, 9] },
	{ "s": "TRANSVERSAL", "p": [14, 22, 21, 23, 20, 15, 12, 28, 19, 25, 13] },
	{ "s": "TRANVERSAL", "p": [13, 14] },
	{ "s": "TRANVERSALES", "p": [13] },
	{ "s": "TRASVERSAL", "p": [19] }
]