[
	{ "s": "MANUAL", "p": [1] },
	{ "s": "MENU", "p": [24, 16, 12, 8, 6, 4, 28, 27, 26, 25, 23, 21, 20, 19, 18, 17, 15, 14, 13, 11, 10, 9, 7, 5] },
	{ "s": "MES", "p": [21] },
	{ "s": "MODULO", "p": [13] },
	{ "s": "MORADO", "p": [21] },
	{ "s": "MOSTRANDO", "p": [21] },
	{ "s": "MOSTRAR", "p": [21, 6] },
	{ "s": "MOSTRARA", "p": [22, 21] },
	{ "s": "MOSTRARAN", "p": [28, 26, 5] },
	{ "s": "MUESTRA", "p": [28, 20, 23, 22, 19, 15] },
	{ "s": "MUESTRAN", "p": [27, 6] },
	{ "s": "MUESTRAS", "p": [13] },
	{ "s": "MUNICIPIO", "p": [25, 17, 5, 9] },
	{ "s": "MUNICIPIOS", "p": [5] },
	{ "s": "MUYESTRA", "p": [28] }
]