[
	{ "s": "PAGINA", "p": [23] },
	{ "s": "PALABRA", "p": [28, 26, 20, 18, 15, 12, 10, 8] },
	{ "s": "PARA", "p": [21, 22, 14, 3, 5, 25, 23, 20, 19, 17, 12, 11, 10, 8, 7] },
	{ "s": "PENDIENTES", "p": [19, 12, 8] },
	{ "s": "PERFIL", "p": [25] },
	{ "s": "PERSONA", "p": [5] },
	{ "s": "PLATA", "p": [25] },
	{ "s": "PLATAFORMA", "p": [3, 5] },
	{ "s": "PODER", "p": [5] },
	{ "s": "PODRA", "p": [14, 6] },
	{ "s": "PONDRA", "p": [14] },
	{ "s": "PRINCIPAL", "p": [1] },
	{ "s": "PROCOORD", "p": [1] },
	{ "s": "PRODUCTIVA", "p": [17] },
	{ "s": "PROFESIONAL", "p": [25] },
	{ "s": "PROGRAMA", "p": [17, 22] },
	{ "s": "PROYECTO", "p": [17] },
	{ "s": "PUEDE", "p": [28, 22, 19, 6] },
	{ "s": "PUEDEN", "p": [23, 11, 7] },
	{ "s": "PÁGINA", "p": [1] }
]